# Hard-coded functions made fully or partly scripted
#
# Note that most functions use unique mechanics

# ROOT = country
can_join_hre_league = {
	condition = {
		tooltip = "CANNOT_JOIN_LEAGUE_AT_WAR"
		potential = {
		}
		allow = {
			is_at_war = no
		}
	}
}

can_leave_hre_league = {
}

can_harsh_treatment = {
}

can_reduce_war_exhaustion = {
}

can_reduce_inflation = {
}

can_declare_bankruptcy = {
}

can_release_colonial_nation = {
	condition = {
		tooltip = "CAN_RELEASE_CN_WE_ARE_AT_WAR"
		potential = {
		}
		allow = {
			is_at_war = no
		}
	}
}

can_claim_defender_of_faith = {
	condition = {
		tooltip = "regent_court_defender_tooltip"
		potential = {
			religion = regent_court
		}
		allow = {
			always = no
		}
	}
}

can_change_national_focus = {
}

can_increase_stability = {
}

# ROOT = province, FROM = country
can_add_province_to_hre = {
	
}

can_remove_province_from_hre = {
	condition = {
		potential = {
			ai = yes
		}
		allow = {
			NOT = {
				has_country_flag = permanently_left_hre_flag
			}
		}
	}
}

can_increase_autonomy = {
}

can_decrease_autonomy = {
}

can_make_core = {
}

can_make_state = {
}

can_abandon_state = {
}

can_improve_tax = {
}

can_improve_production = {
}

can_improve_manpower = {
}

can_exploit_tax = {
}

can_exploit_production = {
}

can_exploit_manpower = {
}

can_change_culture = {
}

can_move_capital = {
	condition = {
		tooltip = "NO_CAPITAL_MOVE_SHOGUN"
		potential = {
			FROM = {
				OR = {
					has_reform = shogunate
					has_reform = raja_reform
				}
			}
		}
		allow = {
			always = no
		}
	}
	condition = {
		tooltip = "NO_CAPITAL_MOVE_DIGGING"
		potential = {
			FROM = {
				has_country_flag = is_digging
			}
		}
		allow = {
			always = no
		}
	}
	condition = {
		tooltip = "NO_CAPITAL_MOVE_ADVANCED_SPECIALIZATION"
		potential = {
			FROM = {
				has_country_flag = building_diggy
			}
		}
		allow = {
			always = no
		}
	}
	condition = {
		tooltip = "NO_CAPITAL_MOVE_DIGGY_FALLEN"
		potential = {
			has_province_modifier = fallen_great_excavation
		}
		allow = {
			always = no
		}
	}
	
	condition = {
		tooltip = "NO_CAPITAL_MOVE_EMERALD"
		potential = {
			owner = { tag = I46 }
			874 = { is_capital = yes }
		}
		allow = {
			always = no
		}
	}
}

can_move_trade_port = {
}

can_order_assault = {
}

can_order_force_march = {
}

can_scorch_earth = {
}

can_garrison_sorties = {
}

can_seize_colony = {
}

can_burn_colony = {
}

can_colonize_province = {
	condition = { # Venail AI is a lil bitch
		potential = {
			FROM = {
				tag = A21
				ai = yes
			}
			AND = {
				NOT = { colonial_region = colonial_endralliande }
				NOT = { colonial_region = colonial_noruin }
				#NOT = { colonial_region = colonial_dalaire }
			}
		}
		allow = {
			always = no
		}
	}
	
	condition = { # Can't colonize Gerudia if not from Gerudia or Escann
		potential = {
			FROM = {
				ai = yes
				NOT = {
					capital_scope = {
						OR = {
							superregion = gerudia_superregion
							superregion = escann_superregion
						}
					}
				}
			}
			superregion = gerudia_superregion
		}
		allow = {
			always = no
		}
	}
	
	condition = { # Silblaidd can't colonize outside haraf
		potential = {
			FROM = {
				ai = yes
				OR = {
					tag = Z43
				}
			}
			NOT = { colonial_region = colonial_haraf }
		}
		allow = {
			always = no
		}
	}
	
	
	condition = { # Cant colonize Daravan's Folly except Nathalaire and co
		potential = {
			FROM = {
				ai = yes
				NOT = {
					capital_scope = { region = ourdia_region }
					capital_scope = { region = daravans_folly_region }
					capital_scope = { region = dostanor_region }
					capital_scope = { region = bahar_region }
					tag = A72 #Arannen
				}
			}
			region = daravans_folly_region
		}
		allow = {
			always = no
		}
	}
	
	condition = { # Test to see if Frozenforge colonizes into the Forbidden Plains
		potential = {
			FROM = {
				ai = yes
				OR = {
					tag = I02
				}
			}
			region = yyl_moista_region
		}
		allow = {
			always = no
		}
    }
	
	condition = { # Cant colonize those province
		potential = {
			has_province_flag = cant_colonize
			FROM = { ai = yes }
		}
		allow = {
			always = no
		}
	}
}

can_colonize_province_siberian_frontier = {
}

can_add_seat_in_parliament = {
}

can_add_estate = {
}

can_expel_minority_from = {
	condition = {
		potential = {
			OR = {
				is_religious_center_province = yes
				is_reformation_center = yes
			}
		}
		allow = {
			always = no
		}
	}
}

#hardcoded: has a colonial parent or is in the same colonial region as the capital
can_have_colonial_nations = {
	condition = {
		potential = {
			FROM = {
				has_country_flag = no_colonial_nations
			}
		}
		allow = {
			always = no
		}
	}
}

condition = { # Test to see if Frozenforge colonizes into the Forbidden Plains
		potential = {
			FROM = {
				ai = yes
				OR = {
					tag = I02
				}
			}
			region = yyl_moista_region
		}
		allow = {
			always = no
		}
}

### Special functions

# Called by can_add_province_to_hre
is_possible_hre_province = {
	condition = {
		tooltip = "APH_ONLY_EUROPE"
		potential = {
		}
		allow = {
			continent = europe
		}
	}
}

will_demand_annexation = {
	condition = {
		potential = {
			is_elector = yes
		}
		allow = {
			NOT = { hre_reform_passed = landfriede }
		}
	}
}