type={
	type="eagle"
	use_animation=yes
	scale=0.300000
	time_duration=300.000000
	object={
		name="Eagle_Alps"
		hidden_on_start=no
		position={
			2920.000 15.350 1416.000 
		}
		rotation={
			0.000 45.000 0.000 
		}
	}
	object={
		name="Eagle_Alps"
		hidden_on_start=no
		position={
			2927.000 12.400 1749.000 
		}
		rotation={
			0.000 45.000 0.000 
		}
	}
}
type={
	type="windmill"
	use_animation=yes
	scale=0.300000
	time_duration=300.000000
	object={
		name="French_windmill"
		hidden_on_start=no
		position={
			2771.000 0.100 1530.000 
		}
		rotation={
			0.000 -15.000 0.000 
		}
	}
	object={
		name="French_windmill"
		hidden_on_start=no
		position={
			2784.000 0.100 1508.000 
		}
		rotation={
			0.000 -15.000 0.000 
		}
	}
	object={
		name="French_windmill"
		hidden_on_start=no
		position={
			2861.000 0.100 1468.000 
		}
		rotation={
			0.000 -15.000 0.000 
		}
	}
	object={
		name="French_windmill"
		hidden_on_start=no
		position={
			2844.000 0.100 1532.000 
		}
		rotation={
			0.000 -15.000 0.000 
		}
	}
	object={
		name="French_windmill"
		hidden_on_start=no
		position={
			2745.000 0.100 1590.000 
		}
		rotation={
			0.000 -15.000 0.000 
		}
	}
	object={
		name="French_windmill"
		hidden_on_start=no
		position={
			2708.000 0.100 1587.000 
		}
		rotation={
			0.000 -15.000 0.000 
		}
	}
	object={
		name="French_windmill"
		hidden_on_start=no
		position={
			2726.000 0.100 1603.000 
		}
		rotation={
			0.000 -15.000 0.000 
		}
	}
	object={
		name="French_windmill"
		hidden_on_start=no
		position={
			2754.000 0.100 1603.000 
		}
		rotation={
			0.000 -15.000 0.000 
		}
	}
	object={
		name="French_windmill"
		hidden_on_start=no
		position={
			2727.000 0.100 1620.000 
		}
		rotation={
			0.000 -15.000 0.000 
		}
	}
	object={
		name="French_windmill"
		hidden_on_start=no
		position={
			2764.000 0.100 1578.000 
		}
		rotation={
			0.000 -15.000 0.000 
		}
	}
	object={
		name="French_windmill"
		hidden_on_start=no
		position={
			2879.000 0.100 1544.000 
		}
		rotation={
			0.000 -15.000 0.000 
		}
	}
	object={
		name="French_windmill"
		hidden_on_start=no
		position={
			2877.000 0.100 1538.000 
		}
		rotation={
			0.000 -15.000 0.000 
		}
	}
	object={
		name="French_windmill"
		hidden_on_start=no
		position={
			3125.000 0.100 1985.000 
		}
		rotation={
			0.000 -15.000 0.000 
		}
	}
	object={
		name="French_windmill"
		hidden_on_start=no
		position={
			2881.000 0.100 1561.000 
		}
		rotation={
			0.000 -15.000 0.000 
		}
	}
	object={
		name="French_windmill"
		hidden_on_start=no
		position={
			2894.000 0.100 1546.000 
		}
		rotation={
			0.000 -15.000 0.000 
		}
	}
}
type={
	type="seagulls"
	use_animation=yes
	scale=0.300000
	time_duration=300.000000
	object={
		name="Seagulls_zansibar"
		hidden_on_start=no
		position={
			3124.000 11.000 62.000 
		}
		rotation={
			0.000 45.000 0.000 
		}
	}
	object={
		name="Seagulls_zambia"
		hidden_on_start=no
		position={
			3795.000 11.000 488.000 
		}
		rotation={
			0.000 45.000 0.000 
		}
	}
	object={
		name="Seagulls_zansibar"
		hidden_on_start=no
		position={
			4663.000 11.000 507.000 
		}
		rotation={
			0.000 45.000 0.000 
		}
	}
	object={
		name="INFANTRY"
		hidden_on_start=no
		position={
			5073.000 11.000 53.000 
		}
		rotation={
			0.000 45.000 0.000 
		}
	}
	object={
		name="INFANTRY"
		hidden_on_start=no
		position={
			5540.000 11.000 131.000 
		}
		rotation={
			0.000 45.000 0.000 
		}
	}
	object={
		name="Seagulls_sierra_leon"
		hidden_on_start=no
		position={
			2577.000 11.000 786.000 
		}
		rotation={
			0.000 45.000 0.000 
		}
	}
	object={
		name="Seagulls_West_africa"
		hidden_on_start=no
		position={
			2860.000 11.000 731.000 
		}
		rotation={
			0.000 45.000 0.000 
		}
	}
	object={
		name="Seagulls_kongo"
		hidden_on_start=no
		position={
			3117.000 11.000 776.000 
		}
		rotation={
			0.000 45.000 0.000 
		}
	}
	object={
		name="INFANTRY"
		hidden_on_start=no
		position={
			3319.000 11.000 631.000 
		}
		rotation={
			0.000 45.000 0.000 
		}
	}
	object={
		name="Seagulls_Ethiopia"
		hidden_on_start=no
		position={
			3514.000 11.000 840.000 
		}
		rotation={
			0.000 45.000 0.000 
		}
	}
	object={
		name="Seagulls_srilanka"
		hidden_on_start=no
		position={
			4043.810 11.000 784.800 
		}
		rotation={
			0.000 45.000 0.000 
		}
	}
	object={
		name="Seagulls_west_india"
		hidden_on_start=no
		position={
			3920.000 11.000 953.000 
		}
		rotation={
			0.000 45.000 0.000 
		}
	}
	object={
		name="Seagulls_ganges_delta"
		hidden_on_start=no
		position={
			4209.000 11.000 986.000 
		}
		rotation={
			0.000 45.000 0.000 
		}
	}
	object={
		name="Seagulls_zansibar"
		hidden_on_start=no
		position={
			4321.000 11.000 887.000 
		}
		rotation={
			0.000 45.000 0.000 
		}
	}
	object={
		name="Seagulls_zansibar"
		hidden_on_start=no
		position={
			4437.000 11.000 649.000 
		}
		rotation={
			0.000 45.000 0.000 
		}
	}
	object={
		name="Seagulls_zansibar"
		hidden_on_start=no
		position={
			4747.000 11.000 799.000 
		}
		rotation={
			0.000 45.000 0.000 
		}
	}
	object={
		name="Seagulls_vietnam_delta"
		hidden_on_start=no
		position={
			4473.000 11.000 801.000 
		}
		rotation={
			0.000 45.000 0.000 
		}
	}
	object={
		name="Seagulls_north_vietnam"
		hidden_on_start=no
		position={
			4486.000 11.000 976.000 
		}
		rotation={
			0.000 45.000 0.000 
		}
	}
	object={
		name="Seagulls_Aland"
		hidden_on_start=no
		position={
			1284.000 10.800 1276.000 
		}
		rotation={
			0.000 45.000 0.000 
		}
	}
	object={
		name="Seagulls_zansibar"
		hidden_on_start=no
		position={
			461.000 11.000 1492.000 
		}
		rotation={
			0.000 45.000 0.000 
		}
	}
	object={
		name="Seagulls_Canarian_islands"
		hidden_on_start=no
		position={
			1240.000 11.000 1347.000 
		}
		rotation={
			0.000 45.000 0.000 
		}
	}
	object={
		name="Seagulls_english_channel"
		hidden_on_start=no
		position={
			2807.000 11.000 1534.000 
		}
		rotation={
			0.000 45.000 0.000 
		}
	}
	object={
		name="INFANTRY"
		hidden_on_start=no
		position={
			2763.000 11.000 1432.000 
		}
		rotation={
			0.000 45.000 0.000 
		}
	}
	object={
		name="Seagulls_Gibraltar"
		hidden_on_start=no
		position={
			2700.000 11.000 1242.000 
		}
		rotation={
			0.000 45.000 0.000 
		}
	}
	object={
		name="Seagulls_Venice"
		hidden_on_start=no
		position={
			3014.000 11.000 1413.000 
		}
		rotation={
			0.000 45.000 0.000 
		}
	}
	object={
		name="Seagulls_Cyperus"
		hidden_on_start=no
		position={
			3348.000 11.000 1204.000 
		}
		rotation={
			0.000 45.000 0.000 
		}
	}
	object={
		name="Seagulls_zansibar"
		hidden_on_start=no
		position={
			5012.000 11.000 1263.000 
		}
		rotation={
			0.000 45.000 0.000 
		}
	}
	object={
		name="Seagulls_taiwan"
		hidden_on_start=no
		position={
			4678.000 11.000 1062.000 
		}
		rotation={
			0.000 45.000 0.000 
		}
	}
	object={
		name="Seagulls_South_korea"
		hidden_on_start=no
		position={
			4825.000 11.000 1214.000 
		}
		rotation={
			0.000 45.000 0.000 
		}
	}
	object={
		name="Seagulls_Japan"
		hidden_on_start=no
		position={
			4954.000 11.000 1211.000 
		}
		rotation={
			0.000 45.000 0.000 
		}
	}
	object={
		name="INFANTRY"
		hidden_on_start=no
		position={
			2576.000 11.000 1710.000 
		}
		rotation={
			0.000 45.000 0.000 
		}
	}
	object={
		name="INFANTRY"
		hidden_on_start=no
		position={
			2612.000 10.900 1553.000 
		}
		rotation={
			0.000 45.000 0.000 
		}
	}
	object={
		name="Seagulls_Aland"
		hidden_on_start=no
		position={
			3110.000 10.800 1990.000 
		}
		rotation={
			0.000 45.000 0.000 
		}
	}
	object={
		name="Seagulls_baltic"
		hidden_on_start=no
		position={
			2987.000 11.000 1836.000 
		}
		rotation={
			0.000 45.000 0.000 
		}
	}
	object={
		name="Seagulls_Neatherlands"
		hidden_on_start=no
		position={
			2838.000 11.000 1553.000 
		}
		rotation={
			0.000 45.000 0.000 
		}
	}
}
type={
	type="black_bear"
	use_animation=yes
	scale=0.200000
	time_duration=300.000000
	object={
		name="Seagulls_english_channel"
		hidden_on_start=no
		position={
			1265.000 0.400 1598.000 
		}
		rotation={
			0.000 -60.000 0.000 
		}
	}
	object={
		name="Seagulls_english_channel"
		hidden_on_start=no
		position={
			1152.000 0.400 1683.000 
		}
		rotation={
			0.000 -60.000 0.000 
		}
	}
	object={
		name="Seagulls_english_channel"
		hidden_on_start=no
		position={
			1023.000 0.400 1688.000 
		}
		rotation={
			0.000 -60.000 0.000 
		}
	}
	object={
		name="Seagulls_english_channel"
		hidden_on_start=no
		position={
			835.000 0.100 1706.000 
		}
		rotation={
			0.000 45.000 0.000 
		}
	}
	object={
		name="Seagulls_english_channel"
		hidden_on_start=no
		position={
			949.000 0.150 1750.000 
		}
		rotation={
			0.000 -60.000 0.000 
		}
	}
	object={
		name="Seagulls_english_channel"
		hidden_on_start=no
		position={
			1051.000 0.400 1729.000 
		}
		rotation={
			0.000 -60.000 0.000 
		}
	}
	object={
		name="Seagulls_english_channel"
		hidden_on_start=no
		position={
			1131.000 0.100 1844.000 
		}
		rotation={
			0.000 -60.000 0.000 
		}
	}
	object={
		name="Seagulls_english_channel"
		hidden_on_start=no
		position={
			690.000 0.100 1627.000 
		}
		rotation={
			0.000 45.000 0.000 
		}
	}
	object={
		name="Seagulls_english_channel"
		hidden_on_start=no
		position={
			1629.000 0.400 1758.000 
		}
		rotation={
			0.000 -60.000 0.000 
		}
	}
	object={
		name="Seagulls_english_channel"
		hidden_on_start=no
		position={
			1572.000 0.100 1834.000 
		}
		rotation={
			0.000 -60.000 0.000 
		}
	}
	object={
		name="Seagulls_english_channel"
		hidden_on_start=no
		position={
			3350.000 0.400 1760.000 
		}
		rotation={
			0.000 -60.000 0.000 
		}
	}
	object={
		name="Seagulls_english_channel"
		hidden_on_start=no
		position={
			3143.000 0.400 1976.000 
		}
		rotation={
			0.000 -60.000 0.000 
		}
	}
}
type={
	type="polar_bear"
	use_animation=yes
	scale=0.300000
	time_duration=300.000000
	object={
		name="Seagulls_english_channel"
		hidden_on_start=no
		position={
			1116.000 0.100 2011.000 
		}
		rotation={
			0.000 -60.000 0.000 
		}
	}
	object={
		name="Seagulls_english_channel"
		hidden_on_start=no
		position={
			2933.000 0.100 1975.000 
		}
		rotation={
			0.000 30.000 0.000 
		}
	}
	object={
		name="Seagulls_english_channel"
		hidden_on_start=no
		position={
			3136.000 0.100 1978.000 
		}
		rotation={
			0.000 30.000 0.000 
		}
	}
}
type={
	type="brown_bear"
	use_animation=yes
	scale=0.200000
	time_duration=300.000000
	object={
		name="Seagulls_english_channel"
		hidden_on_start=no
		position={
			528.000 0.250 1519.000 
		}
		rotation={
			0.000 -60.000 0.000 
		}
	}
	object={
		name="Seagulls_english_channel"
		hidden_on_start=no
		position={
			632.000 0.250 1724.000 
		}
		rotation={
			0.000 -60.000 0.000 
		}
	}
	object={
		name="Seagulls_english_channel"
		hidden_on_start=no
		position={
			506.000 0.100 1591.000 
		}
		rotation={
			0.000 60.000 0.000 
		}
	}
	object={
		name="Seagulls_english_channel"
		hidden_on_start=no
		position={
			3109.000 0.250 1974.000 
		}
		rotation={
			0.000 -60.000 0.000 
		}
	}
	object={
		name="Seagulls_english_channel"
		hidden_on_start=no
		position={
			3338.000 0.250 1687.000 
		}
		rotation={
			0.000 -60.000 0.000 
		}
	}
	object={
		name="Seagulls_english_channel"
		hidden_on_start=no
		position={
			3284.000 0.250 1713.000 
		}
		rotation={
			0.000 50.000 0.000 
		}
	}
	object={
		name="Seagulls_english_channel"
		hidden_on_start=no
		position={
			3199.000 0.100 1803.000 
		}
		rotation={
			0.000 60.000 0.000 
		}
	}
	object={
		name="Seagulls_english_channel"
		hidden_on_start=no
		position={
			3104.000 0.100 1975.000 
		}
		rotation={
			0.000 60.000 0.000 
		}
	}
	object={
		name="Seagulls_english_channel"
		hidden_on_start=no
		position={
			3107.000 0.100 1881.000 
		}
		rotation={
			0.000 -60.000 0.000 
		}
	}
	object={
		name="Seagulls_english_channel"
		hidden_on_start=no
		position={
			3024.000 0.250 1747.000 
		}
		rotation={
			0.000 -60.000 0.000 
		}
	}
}
type={
	type="panda_bear"
	use_animation=yes
	scale=0.200000
	time_duration=300.000000
	object={
		name="Seagulls_english_channel"
		hidden_on_start=no
		position={
			4377.000 0.100 1204.000 
		}
		rotation={
			0.000 -60.000 0.000 
		}
	}
	object={
		name="Seagulls_english_channel"
		hidden_on_start=no
		position={
			4342.000 0.100 1242.000 
		}
		rotation={
			0.000 -60.000 0.000 
		}
	}
	object={
		name="Seagulls_english_channel"
		hidden_on_start=no
		position={
			4254.000 0.200 1310.000 
		}
		rotation={
			0.000 -60.000 0.000 
		}
	}
	object={
		name="Seagulls_english_channel"
		hidden_on_start=no
		position={
			4450.000 0.100 1187.000 
		}
		rotation={
			0.000 -40.000 0.000 
		}
	}
	object={
		name="Seagulls_english_channel"
		hidden_on_start=no
		position={
			3144.000 0.100 1983.000 
		}
		rotation={
			0.000 -60.000 0.000 
		}
	}
}
type={
	type="kangaroo"
	use_animation=yes
	scale=0.200000
	time_duration=300.000000
	object={
		name="Seagulls_english_channel"
		hidden_on_start=no
		position={
			4097.000 0.100 266.000 
		}
		rotation={
			0.000 -60.000 0.000 
		}
	}
	object={
		name="Seagulls_english_channel"
		hidden_on_start=no
		position={
			3958.000 0.100 358.000 
		}
		rotation={
			0.000 80.000 0.000 
		}
	}
	object={
		name="Seagulls_english_channel"
		hidden_on_start=no
		position={
			4160.000 0.100 448.000 
		}
		rotation={
			0.000 -40.000 0.000 
		}
	}
	object={
		name="Seagulls_english_channel"
		hidden_on_start=no
		position={
			4950.000 0.100 277.000 
		}
		rotation={
			0.000 60.000 0.000 
		}
	}
	object={
		name="Seagulls_english_channel"
		hidden_on_start=no
		position={
			3124.000 0.100 1973.000 
		}
		rotation={
			0.000 -60.000 0.000 
		}
	}
	object={
		name="Seagulls_english_channel"
		hidden_on_start=no
		position={
			3144.000 0.100 1997.000 
		}
		rotation={
			0.000 80.000 0.000 
		}
	}
}
type={
	type="crocodile"
	use_animation=yes
	scale=0.250000
	time_duration=300.000000
	object={
		name="Seagulls_english_channel"
		hidden_on_start=no
		position={
			1797.000 0.200 671.000 
		}
		rotation={
			0.000 -75.000 0.000 
		}
	}
	object={
		name="Seagulls_english_channel"
		hidden_on_start=no
		position={
			1614.000 0.100 666.000 
		}
		rotation={
			0.000 30.000 0.000 
		}
	}
	object={
		name="Seagulls_english_channel"
		hidden_on_start=no
		position={
			1675.000 0.200 632.000 
		}
		rotation={
			0.000 -75.000 0.000 
		}
	}
	object={
		name="Seagulls_english_channel"
		hidden_on_start=no
		position={
			1969.000 0.100 842.000 
		}
		rotation={
			0.000 40.000 0.000 
		}
	}
	object={
		name="Seagulls_english_channel"
		hidden_on_start=no
		position={
			2885.000 0.100 749.000 
		}
		rotation={
			0.000 50.000 0.000 
		}
	}
	object={
		name="Seagulls_english_channel"
		hidden_on_start=no
		position={
			3336.000 0.100 931.000 
		}
		rotation={
			0.000 -60.000 0.000 
		}
	}
	object={
		name="Seagulls_english_channel"
		hidden_on_start=no
		position={
			3338.000 0.300 690.000 
		}
		rotation={
			0.000 50.000 0.000 
		}
	}
	object={
		name="Seagulls_english_channel"
		hidden_on_start=no
		position={
			2968.000 0.100 776.000 
		}
		rotation={
			0.000 50.000 0.000 
		}
	}
	object={
		name="Seagulls_english_channel"
		hidden_on_start=no
		position={
			3086.000 0.100 785.000 
		}
		rotation={
			0.000 50.000 0.000 
		}
	}
	object={
		name="Seagulls_english_channel"
		hidden_on_start=no
		position={
			3283.000 0.100 981.000 
		}
		rotation={
			0.000 -60.000 0.000 
		}
	}
	object={
		name="Seagulls_english_channel"
		hidden_on_start=no
		position={
			1385.000 0.100 1368.000 
		}
		rotation={
			0.000 -45.000 0.000 
		}
	}
	object={
		name="Seagulls_english_channel"
		hidden_on_start=no
		position={
			1341.000 0.100 1367.000 
		}
		rotation={
			0.000 30.000 0.000 
		}
	}
	object={
		name="Seagulls_english_channel"
		hidden_on_start=no
		position={
			1228.000 0.100 1381.000 
		}
		rotation={
			0.000 30.000 0.000 
		}
	}
	object={
		name="Seagulls_english_channel"
		hidden_on_start=no
		position={
			1178.000 0.250 1305.000 
		}
		rotation={
			0.000 -60.000 0.000 
		}
	}
	object={
		name="Seagulls_english_channel"
		hidden_on_start=no
		position={
			3268.000 0.100 1243.000 
		}
		rotation={
			0.000 -60.000 0.000 
		}
	}
	object={
		name="Seagulls_english_channel"
		hidden_on_start=no
		position={
			3083.000 0.100 1217.000 
		}
		rotation={
			0.000 -60.000 0.000 
		}
	}
	object={
		name="Seagulls_english_channel"
		hidden_on_start=no
		position={
			1086.000 0.100 1612.000 
		}
		rotation={
			0.000 -60.000 0.000 
		}
	}
	object={
		name="Seagulls_english_channel"
		hidden_on_start=no
		position={
			3123.000 0.100 1998.000 
		}
		rotation={
			0.000 50.000 0.000 
		}
	}
	object={
		name="Seagulls_english_channel"
		hidden_on_start=no
		position={
			3128.000 0.100 1999.000 
		}
		rotation={
			0.000 -60.000 0.000 
		}
	}
}
type={
	type="zebra"
	use_animation=yes
	scale=0.200000
	time_duration=300.000000
	object={
		name="Seagulls_english_channel"
		hidden_on_start=no
		position={
			3160.000 0.200 908.000 
		}
		rotation={
			0.000 60.000 0.000 
		}
	}
	object={
		name="Seagulls_english_channel"
		hidden_on_start=no
		position={
			3617.000 0.100 954.000 
		}
		rotation={
			0.000 -40.000 0.000 
		}
	}
	object={
		name="Seagulls_english_channel"
		hidden_on_start=no
		position={
			3145.000 0.100 984.000 
		}
		rotation={
			0.000 -60.000 0.000 
		}
	}
	object={
		name="Seagulls_english_channel"
		hidden_on_start=no
		position={
			3375.000 0.100 914.000 
		}
		rotation={
			0.000 -60.000 0.000 
		}
	}
	object={
		name="Seagulls_english_channel"
		hidden_on_start=no
		position={
			3816.000 0.150 955.000 
		}
		rotation={
			0.000 -60.000 0.000 
		}
	}
	object={
		name="Seagulls_english_channel"
		hidden_on_start=no
		position={
			3172.000 0.400 1998.000 
		}
		rotation={
			0.000 60.000 0.000 
		}
	}
	object={
		name="Seagulls_english_channel"
		hidden_on_start=no
		position={
			3176.000 0.150 1998.000 
		}
		rotation={
			0.000 -60.000 0.000 
		}
	}
}
type={
	type="seal"
	use_animation=yes
	scale=0.250000
	time_duration=300.000000
	object={
		name="Seagulls_english_channel"
		hidden_on_start=no
		position={
			2995.000 0.100 60.000 
		}
		rotation={
			0.000 40.000 0.000 
		}
	}
	object={
		name="Seagulls_english_channel"
		hidden_on_start=no
		position={
			1221.000 0.100 1868.000 
		}
		rotation={
			0.000 -130.000 0.000 
		}
	}
	object={
		name="Seagulls_english_channel"
		hidden_on_start=no
		position={
			992.000 0.100 1899.000 
		}
		rotation={
			0.000 -130.000 0.000 
		}
	}
	object={
		name="Seagulls_english_channel"
		hidden_on_start=no
		position={
			826.000 0.100 1733.000 
		}
		rotation={
			0.000 -60.000 0.000 
		}
	}
	object={
		name="Seagulls_english_channel"
		hidden_on_start=no
		position={
			845.000 0.100 1884.000 
		}
		rotation={
			0.000 -30.000 0.000 
		}
	}
	object={
		name="Seagulls_english_channel"
		hidden_on_start=no
		position={
			912.000 0.100 1995.000 
		}
		rotation={
			0.000 40.000 0.000 
		}
	}
	object={
		name="Seagulls_english_channel"
		hidden_on_start=no
		position={
			1107.000 0.100 1926.000 
		}
		rotation={
			0.000 40.000 0.000 
		}
	}
	object={
		name="Seagulls_english_channel"
		hidden_on_start=no
		position={
			795.000 0.100 1999.000 
		}
		rotation={
			0.000 -60.000 0.000 
		}
	}
	object={
		name="Seagulls_english_channel"
		hidden_on_start=no
		position={
			1674.000 0.100 1806.000 
		}
		rotation={
			0.000 50.000 0.000 
		}
	}
	object={
		name="Seagulls_english_channel"
		hidden_on_start=no
		position={
			2738.000 0.100 1913.000 
		}
		rotation={
			0.000 -40.000 0.000 
		}
	}
	object={
		name="Seagulls_english_channel"
		hidden_on_start=no
		position={
			2718.000 0.100 1999.000 
		}
		rotation={
			0.000 50.000 0.000 
		}
	}
	object={
		name="Seagulls_english_channel"
		hidden_on_start=no
		position={
			2670.000 0.100 1665.000 
		}
		rotation={
			0.000 50.000 0.000 
		}
	}
	object={
		name="Seagulls_english_channel"
		hidden_on_start=no
		position={
			2890.000 0.100 1727.000 
		}
		rotation={
			0.000 -60.000 0.000 
		}
	}
	object={
		name="Seagulls_english_channel"
		hidden_on_start=no
		position={
			2897.000 0.100 1792.000 
		}
		rotation={
			0.000 -60.000 0.000 
		}
	}
	object={
		name="Seagulls_english_channel"
		hidden_on_start=no
		position={
			3134.000 0.100 1988.000 
		}
		rotation={
			0.000 -130.000 0.000 
		}
	}
	object={
		name="Seagulls_english_channel"
		hidden_on_start=no
		position={
			3136.000 0.100 1993.000 
		}
		rotation={
			0.000 50.000 0.000 
		}
	}
}
type={
	type="whale"
	use_animation=yes
	scale=0.800000
	time_duration=300.000000
	object={
		name="Seagulls_english_channel"
		hidden_on_start=no
		position={
			560.000 0.100 1895.000 
		}
		rotation={
			0.000 45.000 0.000 
		}
	}
	object={
		name="Seagulls_english_channel"
		hidden_on_start=no
		position={
			1065.000 0.100 1931.000 
		}
		rotation={
			0.000 45.000 0.000 
		}
	}
	object={
		name="Seagulls_english_channel"
		hidden_on_start=no
		position={
			363.000 0.100 1858.000 
		}
		rotation={
			0.000 0.000 0.000 
		}
	}
	object={
		name="Seagulls_english_channel"
		hidden_on_start=no
		position={
			356.000 0.100 1664.000 
		}
		rotation={
			0.000 0.000 0.000 
		}
	}
	object={
		name="Seagulls_english_channel"
		hidden_on_start=no
		position={
			2622.000 0.100 1678.000 
		}
		rotation={
			0.000 0.000 0.000 
		}
	}
	object={
		name="Seagulls_english_channel"
		hidden_on_start=no
		position={
			2653.000 0.100 1930.000 
		}
		rotation={
			0.000 0.000 0.000 
		}
	}
	object={
		name="Seagulls_english_channel"
		hidden_on_start=no
		position={
			2271.000 0.100 1877.000 
		}
		rotation={
			0.000 0.000 0.000 
		}
	}
	object={
		name="Seagulls_english_channel"
		hidden_on_start=no
		position={
			2059.000 0.100 1676.000 
		}
		rotation={
			0.000 0.000 0.000 
		}
	}
	object={
		name="Seagulls_english_channel"
		hidden_on_start=no
		position={
			1838.000 0.100 1546.000 
		}
		rotation={
			0.000 0.000 0.000 
		}
	}
	object={
		name="Seagulls_english_channel"
		hidden_on_start=no
		position={
			5121.000 0.100 1610.000 
		}
		rotation={
			0.000 0.000 0.000 
		}
	}
	object={
		name="Seagulls_english_channel"
		hidden_on_start=no
		position={
			5413.000 0.100 1548.000 
		}
		rotation={
			0.000 0.000 0.000 
		}
	}
}
type={
	type="vulture"
	use_animation=yes
	scale=0.300000
	time_duration=300.000000
	object={
		name="Seagulls_english_channel"
		hidden_on_start=no
		position={
			4032.000 5.000 330.000 
		}
		rotation={
			0.000 45.000 0.000 
		}
	}
	object={
		name="Seagulls_english_channel"
		hidden_on_start=no
		position={
			3116.000 4.050 307.000 
		}
		rotation={
			0.000 45.000 0.000 
		}
	}
	object={
		name="Seagulls_english_channel"
		hidden_on_start=no
		position={
			2743.000 9.600 970.000 
		}
		rotation={
			0.000 45.000 0.000 
		}
	}
	object={
		name="Seagulls_english_channel"
		hidden_on_start=no
		position={
			3629.000 10.400 983.000 
		}
		rotation={
			0.000 45.000 0.000 
		}
	}
	object={
		name="Seagulls_english_channel"
		hidden_on_start=no
		position={
			3339.000 8.750 1021.000 
		}
		rotation={
			0.000 45.000 0.000 
		}
	}
	object={
		name="Seagulls_english_channel"
		hidden_on_start=no
		position={
			2999.000 8.800 967.000 
		}
		rotation={
			0.000 45.000 0.000 
		}
	}
	object={
		name="Seagulls_english_channel"
		hidden_on_start=no
		position={
			3201.000 5.400 900.000 
		}
		rotation={
			0.000 45.000 0.000 
		}
	}
	object={
		name="Seagulls_english_channel"
		hidden_on_start=no
		position={
			3489.000 8.100 749.000 
		}
		rotation={
			0.000 45.000 0.000 
		}
	}
	object={
		name="Seagulls_english_channel"
		hidden_on_start=no
		position={
			909.000 9.850 1211.000 
		}
		rotation={
			0.000 45.000 0.000 
		}
	}
	object={
		name="Seagulls_english_channel"
		hidden_on_start=no
		position={
			765.000 9.850 1402.000 
		}
		rotation={
			0.000 45.000 0.000 
		}
	}
	object={
		name="Seagulls_english_channel"
		hidden_on_start=no
		position={
			1065.540 9.300 1233.300 
		}
		rotation={
			0.000 45.000 0.000 
		}
	}
	object={
		name="Seagulls_english_channel"
		hidden_on_start=no
		position={
			1031.000 9.550 1407.000 
		}
		rotation={
			0.000 45.000 0.000 
		}
	}
	object={
		name="Seagulls_english_channel"
		hidden_on_start=no
		position={
			1171.000 4.300 1427.000 
		}
		rotation={
			0.000 45.000 0.000 
		}
	}
	object={
		name="Seagulls_english_channel"
		hidden_on_start=no
		position={
			4159.000 5.050 1372.000 
		}
		rotation={
			0.000 45.000 0.000 
		}
	}
	object={
		name="Seagulls_english_channel"
		hidden_on_start=no
		position={
			3380.000 9.700 1139.000 
		}
		rotation={
			0.000 45.000 0.000 
		}
	}
	object={
		name="Seagulls_english_channel"
		hidden_on_start=no
		position={
			3514.000 8.850 1112.000 
		}
		rotation={
			0.000 45.000 0.000 
		}
	}
	object={
		name="Seagulls_english_channel"
		hidden_on_start=no
		position={
			3734.000 9.000 1095.000 
		}
		rotation={
			0.000 45.000 0.000 
		}
	}
	object={
		name="Seagulls_english_channel"
		hidden_on_start=no
		position={
			3804.000 6.550 1170.000 
		}
		rotation={
			0.000 45.000 0.000 
		}
	}
	object={
		name="Seagulls_english_channel"
		hidden_on_start=no
		position={
			3148.000 10.400 1163.000 
		}
		rotation={
			0.000 45.000 0.000 
		}
	}
	object={
		name="Seagulls_english_channel"
		hidden_on_start=no
		position={
			2944.000 9.850 1188.000 
		}
		rotation={
			0.000 45.000 0.000 
		}
	}
	object={
		name="Seagulls_english_channel"
		hidden_on_start=no
		position={
			3693.000 10.100 1344.000 
		}
		rotation={
			0.000 45.000 0.000 
		}
	}
	object={
		name="Seagulls_english_channel"
		hidden_on_start=no
		position={
			4085.000 5.050 1271.000 
		}
		rotation={
			0.000 45.000 0.000 
		}
	}
	object={
		name="Seagulls_english_channel"
		hidden_on_start=no
		position={
			4373.000 5.150 1369.000 
		}
		rotation={
			0.000 45.000 0.000 
		}
	}
	object={
		name="Seagulls_english_channel"
		hidden_on_start=no
		position={
			4248.000 3.650 1468.000 
		}
		rotation={
			0.000 45.000 0.000 
		}
	}
	object={
		name="Seagulls_english_channel"
		hidden_on_start=no
		position={
			4503.000 5.600 1404.000 
		}
		rotation={
			0.000 45.000 0.000 
		}
	}
	object={
		name="Seagulls_english_channel"
		hidden_on_start=no
		position={
			950.000 2.350 1538.000 
		}
		rotation={
			0.000 45.000 0.000 
		}
	}
	object={
		name="Seagulls_english_channel"
		hidden_on_start=no
		position={
			3147.000 2.350 2023.000 
		}
		rotation={
			0.000 45.000 0.000 
		}
	}
	object={
		name="Seagulls_english_channel"
		hidden_on_start=no
		position={
			3139.000 2.350 1680.000 
		}
		rotation={
			0.000 45.000 0.000 
		}
	}
}
type={
	type="guanaco"
	use_animation=yes
	scale=0.200000
	time_duration=300.000000
	object={
		name="Seagulls_english_channel"
		hidden_on_start=no
		position={
			1774.000 0.400 448.000 
		}
		rotation={
			0.000 0.000 0.000 
		}
	}
	object={
		name="Seagulls_english_channel"
		hidden_on_start=no
		position={
			1769.000 0.300 384.000 
		}
		rotation={
			0.000 0.000 0.000 
		}
	}
	object={
		name="Seagulls_english_channel"
		hidden_on_start=no
		position={
			1745.000 0.100 539.000 
		}
		rotation={
			0.000 0.000 0.000 
		}
	}
	object={
		name="Seagulls_english_channel"
		hidden_on_start=no
		position={
			1615.000 0.550 705.000 
		}
		rotation={
			0.000 0.000 0.000 
		}
	}
	object={
		name="Seagulls_english_channel"
		hidden_on_start=no
		position={
			3102.000 0.100 1971.000 
		}
		rotation={
			0.000 0.000 0.000 
		}
	}
}
type={
	type="elephant_AO"
	use_animation=yes
	scale=0.200000
	time_duration=300.000000
	object={
		name="Seagulls_english_channel"
		hidden_on_start=no
		position={
			3201.000 0.200 985.000 
		}
		rotation={
			0.000 60.000 0.000 
		}
	}
	object={
		name="Seagulls_english_channel"
		hidden_on_start=no
		position={
			3997.000 0.200 944.000 
		}
		rotation={
			0.000 -60.000 0.000 
		}
	}
	object={
		name="Seagulls_english_channel"
		hidden_on_start=no
		position={
			3718.000 0.200 1010.000 
		}
		rotation={
			0.000 -60.000 0.000 
		}
	}
	object={
		name="Seagulls_english_channel"
		hidden_on_start=no
		position={
			3662.000 0.200 1013.000 
		}
		rotation={
			0.000 -60.000 0.000 
		}
	}
	object={
		name="Seagulls_english_channel"
		hidden_on_start=no
		position={
			4364.000 0.200 956.000 
		}
		rotation={
			0.000 60.000 0.000 
		}
	}
	object={
		name="Seagulls_english_channel"
		hidden_on_start=no
		position={
			4108.000 0.200 1219.000 
		}
		rotation={
			0.000 40.000 0.000 
		}
	}
	object={
		name="Seagulls_english_channel"
		hidden_on_start=no
		position={
			3982.000 0.200 1165.000 
		}
		rotation={
			0.000 60.000 0.000 
		}
	}
	object={
		name="Seagulls_english_channel"
		hidden_on_start=no
		position={
			3103.000 0.100 1177.000 
		}
		rotation={
			0.000 -60.000 0.000 
		}
	}
	object={
		name="Seagulls_english_channel"
		hidden_on_start=no
		position={
			3959.000 0.200 1186.000 
		}
		rotation={
			0.000 300.000 0.000 
		}
	}
	object={
		name="Seagulls_english_channel"
		hidden_on_start=no
		position={
			4066.000 0.200 1116.000 
		}
		rotation={
			0.000 60.000 0.000 
		}
	}
	object={
		name="Seagulls_english_channel"
		hidden_on_start=no
		position={
			4289.000 0.200 1035.000 
		}
		rotation={
			0.000 60.000 0.000 
		}
	}
	object={
		name="Seagulls_english_channel"
		hidden_on_start=no
		position={
			4241.000 0.200 1061.000 
		}
		rotation={
			0.000 60.000 0.000 
		}
	}
	object={
		name="Seagulls_english_channel"
		hidden_on_start=no
		position={
			3118.000 0.200 1983.000 
		}
		rotation={
			0.000 -60.000 0.000 
		}
	}
}
type={
	type="elephant_indian"
	use_animation=yes
	scale=0.200000
	time_duration=300.000000
	object={
		name="Seagulls_english_channel"
		hidden_on_start=no
		position={
			4020.000 0.100 952.000 
		}
		rotation={
			0.000 -60.000 0.000 
		}
	}
	object={
		name="Seagulls_english_channel"
		hidden_on_start=no
		position={
			4051.000 0.100 911.000 
		}
		rotation={
			0.000 -60.000 0.000 
		}
	}
	object={
		name="Seagulls_english_channel"
		hidden_on_start=no
		position={
			4160.000 0.600 1191.000 
		}
		rotation={
			0.000 80.000 0.000 
		}
	}
	object={
		name="Seagulls_english_channel"
		hidden_on_start=no
		position={
			4100.000 0.600 1226.000 
		}
		rotation={
			0.000 280.000 0.000 
		}
	}
	object={
		name="Seagulls_english_channel"
		hidden_on_start=no
		position={
			4119.000 0.600 1174.000 
		}
		rotation={
			0.000 -60.000 0.000 
		}
	}
}
type={
	type="pyramids"
	use_animation=no
	scale=0.600000
	time_duration=300.000000
	object={
		name="Seagulls_english_channel"
		hidden_on_start=no
		position={
			3136.000 0.100 1128.000 
		}
		rotation={
			0.000 0.000 0.000 
		}
	}
	object={
		name="Seagulls_english_channel"
		hidden_on_start=no
		position={
			3155.000 0.100 1989.000 
		}
		rotation={
			0.000 0.000 0.000 
		}
	}
}
type={
	type="camel"
	use_animation=yes
	scale=0.250000
	time_duration=300.000000
	object={
		name="Seagulls_english_channel"
		hidden_on_start=no
		position={
			3549.000 0.100 1140.000 
		}
		rotation={
			0.000 45.000 0.000 
		}
	}
	object={
		name="Seagulls_english_channel"
		hidden_on_start=no
		position={
			3110.000 0.100 1142.000 
		}
		rotation={
			0.000 45.000 0.000 
		}
	}
	object={
		name="Seagulls_english_channel"
		hidden_on_start=no
		position={
			3184.000 0.100 2006.000 
		}
		rotation={
			0.000 45.000 0.000 
		}
	}
}
type={
	type="bison"
	use_animation=yes
	scale=0.200000
	time_duration=300.000000
	object={
		name="Seagulls_english_channel"
		hidden_on_start=no
		position={
			1078.000 0.100 1526.000 
		}
		rotation={
			0.000 -30.000 0.000 
		}
	}
	object={
		name="Seagulls_english_channel"
		hidden_on_start=no
		position={
			1079.000 0.100 1433.000 
		}
		rotation={
			0.000 -30.000 0.000 
		}
	}
	object={
		name="Seagulls_english_channel"
		hidden_on_start=no
		position={
			1237.000 0.100 1527.000 
		}
		rotation={
			0.000 45.000 0.000 
		}
	}
	object={
		name="Seagulls_english_channel"
		hidden_on_start=no
		position={
			1245.000 0.100 1530.000 
		}
		rotation={
			0.000 -30.000 0.000 
		}
	}
	object={
		name="Seagulls_english_channel"
		hidden_on_start=no
		position={
			1249.000 0.150 1528.000 
		}
		rotation={
			0.000 -60.000 0.000 
		}
	}
	object={
		name="Seagulls_english_channel"
		hidden_on_start=no
		position={
			1234.000 0.550 1444.000 
		}
		rotation={
			0.000 45.000 0.000 
		}
	}
	object={
		name="Seagulls_english_channel"
		hidden_on_start=no
		position={
			1034.000 0.100 1594.000 
		}
		rotation={
			0.000 -30.000 0.000 
		}
	}
	object={
		name="Seagulls_english_channel"
		hidden_on_start=no
		position={
			1003.000 0.100 1681.000 
		}
		rotation={
			0.000 -30.000 0.000 
		}
	}
	object={
		name="Seagulls_english_channel"
		hidden_on_start=no
		position={
			1031.000 0.100 1606.000 
		}
		rotation={
			0.000 -30.000 0.000 
		}
	}
	object={
		name="Seagulls_english_channel"
		hidden_on_start=no
		position={
			1263.000 0.100 1569.000 
		}
		rotation={
			0.000 -30.000 0.000 
		}
	}
	object={
		name="Seagulls_english_channel"
		hidden_on_start=no
		position={
			3127.000 0.100 1992.000 
		}
		rotation={
			0.000 -30.000 0.000 
		}
	}
}
type={
	type="moose"
	use_animation=yes
	scale=0.280000
	time_duration=300.000000
	object={
		name="Seagulls_english_channel"
		hidden_on_start=no
		position={
			1071.000 0.100 1775.000 
		}
		rotation={
			0.000 45.000 0.000 
		}
	}
	object={
		name="Seagulls_english_channel"
		hidden_on_start=no
		position={
			1358.000 0.100 1762.000 
		}
		rotation={
			0.000 45.000 0.000 
		}
	}
	object={
		name="Seagulls_english_channel"
		hidden_on_start=no
		position={
			1331.000 0.100 1854.000 
		}
		rotation={
			0.000 45.000 0.000 
		}
	}
	object={
		name="Seagulls_english_channel"
		hidden_on_start=no
		position={
			1555.000 0.100 1762.000 
		}
		rotation={
			0.000 45.000 0.000 
		}
	}
	object={
		name="Seagulls_english_channel"
		hidden_on_start=no
		position={
			1591.000 0.100 1799.000 
		}
		rotation={
			0.000 45.000 0.000 
		}
	}
	object={
		name="Seagulls_english_channel"
		hidden_on_start=no
		position={
			3315.000 0.100 1672.000 
		}
		rotation={
			0.000 45.000 0.000 
		}
	}
	object={
		name="Seagulls_english_channel"
		hidden_on_start=no
		position={
			3139.000 0.100 1991.000 
		}
		rotation={
			0.000 45.000 0.000 
		}
	}
	object={
		name="Seagulls_english_channel"
		hidden_on_start=no
		position={
			3075.000 0.100 1731.000 
		}
		rotation={
			0.000 64.000 0.000 
		}
	}
	object={	#Drevonsred
		name="Wild Antler Horse"
		hidden_on_start=no
		position={
			1149.000 0.100 1583.000 
		}
		rotation={
			0.000 45.000 0.000 
		}
	}
}
type={
	type="giraffe"
	use_animation=yes
	scale=0.300000
	time_duration=300.000000
	object={
		name="Seagulls_english_channel"
		hidden_on_start=no
		position={
			3408.000 0.100 946.000 
		}
		rotation={
			0.000 -60.000 0.000 
		}
	}
	object={
		name="Seagulls_english_channel"
		hidden_on_start=no
		position={
			3653.000 0.100 952.000 
		}
		rotation={
			0.000 80.000 0.000 
		}
	}
	object={
		name="Seagulls_english_channel"
		hidden_on_start=no
		position={
			3151.000 0.100 2000.000 
		}
		rotation={
			0.000 80.000 0.000 
		}
	}
}
type={
	type="desert_skeleton_mesh"
	use_animation=no
	scale=0.400000
	time_duration=300.000000
	object={
		name="Seagulls_english_channel"
		hidden_on_start=no
		position={
			823.000 0.100 1321.000 
		}
		rotation={
			0.000 50.000 0.000 
		}
	}
	object={
		name="Seagulls_english_channel"
		hidden_on_start=no
		position={
			1078.000 0.100 1369.000 
		}
		rotation={
			0.000 50.000 0.000 
		}
	}
	object={
		name="Seagulls_english_channel"
		hidden_on_start=no
		position={
			1012.000 0.100 1436.000 
		}
		rotation={
			0.000 50.000 0.000 
		}
	}
	object={
		name="Seagulls_english_channel"
		hidden_on_start=no
		position={
			3457.000 0.100 1218.000 
		}
		rotation={
			0.000 50.000 0.000 
		}
	}
	object={
		name="Seagulls_english_channel"
		hidden_on_start=no
		position={
			3792.000 0.100 1234.000 
		}
		rotation={
			0.000 50.000 0.000 
		}
	}
	object={
		name="Seagulls_english_channel"
		hidden_on_start=no
		position={
			2985.000 0.100 1128.000 
		}
		rotation={
			0.000 50.000 0.000 
		}
	}
	object={
		name="Seagulls_english_channel"
		hidden_on_start=no
		position={
			3436.000 0.100 1158.000 
		}
		rotation={
			0.000 50.000 0.000 
		}
	}
	object={
		name="Seagulls_english_channel"
		hidden_on_start=no
		position={
			3142.000 0.100 1986.000 
		}
		rotation={
			0.000 50.000 0.000 
		}
	}
}
type={
	type="frame_top_left_entity"
	use_animation=no
	always_visible=yes
	object={
		name="frame_top_left_entity01"
		hidden_on_start=no
		position={
			412.000 18.000 2046.000 
		}
		rotation={
			0.000 0.000 0.000 
		}
	}
	object={
		name="frame_top_left_entity01"
		hidden_on_start=no
		position={
			-100.000 18.000 2046.000 
		}
		rotation={
			0.000 0.000 0.000 
		}
	}
	object={
		name="frame_top_left_entity03"
		hidden_on_start=no
		position={
			1436.000 18.000 2046.000 
		}
		rotation={
			0.000 0.000 0.000 
		}
	}
	object={
		name="frame_top_left_entity05"
		hidden_on_start=no
		position={
			3484.000 18.000 2046.000 
		}
		rotation={
			0.000 0.000 0.000 
		}
	}
	object={
		name="frame_top_left_entity99"
		hidden_on_start=no
		position={
			5532.000 18.000 2046.000 
		}
		rotation={
			0.000 0.000 0.000 
		}
	}
	object={
		name="frame_top_left_entity07"
		hidden_on_start=no
		position={
			4508.000 18.000 2046.000 
		}
		rotation={
			0.000 0.000 0.000 
		}
	}
}
type={
	type="frame_top_right_entity"
	use_animation=no
	always_visible=yes
	object={
		name="frame_top_left_entity02"
		hidden_on_start=no
		position={
			924.000 18.000 2046.000 
		}
		rotation={
			0.000 0.000 0.000 
		}
	}
	object={
		name="frame_top_left_entity06"
		hidden_on_start=no
		position={
			3996.000 18.000 2046.000 
		}
		rotation={
			0.000 0.000 0.000 
		}
	}
	object={
		name="frame_top_left_entity"
		hidden_on_start=no
		position={
			5020.000 18.000 2046.000 
		}
		rotation={
			0.000 0.000 0.000 
		}
	}
}
type={
	type="frame_bottom_left_entity"
	use_animation=no
	always_visible=yes
	object={
		name="frame_top_left_entity"
		hidden_on_start=no
		position={
			0.000 18.000 1.000 
		}
		rotation={
			0.000 0.000 0.000 
		}
	}
	object={
		name="frame_top_left_entity"
		hidden_on_start=no
		position={
			1024.000 18.000 1.000 
		}
		rotation={
			0.000 0.000 0.000 
		}
	}
	object={
		name="frame_top_left_entity"
		hidden_on_start=no
		position={
			512.000 18.000 1.000 
		}
		rotation={
			0.000 0.000 0.000 
		}
	}
	object={
		name="frame_top_left_entity"
		hidden_on_start=no
		position={
			4096.000 18.000 1.000 
		}
		rotation={
			0.000 0.000 0.000 
		}
	}
	object={
		name="frame_top_left_entity"
		hidden_on_start=no
		position={
			3584.000 18.000 1.000 
		}
		rotation={
			0.000 0.000 0.000 
		}
	}
	object={
		name="frame_top_left_entity"
		hidden_on_start=no
		position={
			4608.000 18.000 1.000 
		}
		rotation={
			0.000 0.000 0.000 
		}
	}
}
type={
	type="frame_bottom_right_entity"
	use_animation=no
	always_visible=yes
	object={
		name="frame_top_left_entity"
		hidden_on_start=no
		position={
			1536.000 18.000 1.000 
		}
		rotation={
			0.000 0.000 0.000 
		}
	}
	object={
		name="frame_top_left_entity"
		hidden_on_start=no
		position={
			2048.000 18.000 1.000 
		}
		rotation={
			0.000 0.000 0.000 
		}
	}
	object={
		name="frame_top_left_entity"
		hidden_on_start=no
		position={
			2560.000 18.000 1.000 
		}
		rotation={
			0.000 0.000 0.000 
		}
	}
	object={
		name="frame_top_left_entity"
		hidden_on_start=no
		position={
			3072.000 18.000 1.000 
		}
		rotation={
			0.000 0.000 0.000 
		}
	}
	object={
		name="frame_top_left_entity"
		hidden_on_start=no
		position={
			5120.000 18.000 1.000 
		}
		rotation={
			0.000 0.000 0.000 
		}
	}
}
type={
	type="frame_top_center_entity"
	use_animation=no
	always_visible=yes
	object={
		name="frame_top_left_entity05"
		hidden_on_start=no
		position={
			1948.000 18.000 2046.000 
		}
		rotation={
			0.000 0.000 0.000 
		}
	}
}
type={
	type="nammi_angkor_wat_entity"
	use_animation=no
	scale=0.570000
	time_duration=300.000000
	object={
		name="angkor_wat"
		hidden_on_start=no
		position={
			4307.000 0.150 917.000 
		}
		rotation={
			0.000 -103.000 0.000 
		}
	}
	object={
		name="angkor_wat"
		hidden_on_start=no
		position={
			3320.000 0.000 1713.000 
		}
		rotation={
			0.000 0.000 0.000 
		}
	}
	object={
		name="angkor_wat"
		hidden_on_start=no
		position={
			3322.000 -0.500 1713.000 
		}
		rotation={
			0.000 0.000 0.000 
		}
	}
	object={
		name="angkor_wat"
		hidden_on_start=no
		position={
			3318.000 -0.500 1713.000 
		}
		rotation={
			0.000 0.000 0.000 
		}
	}
	object={
		name="angkor_wat"
		hidden_on_start=no
		position={
			3123.000 0.150 1991.000 
		}
		rotation={
			0.000 -103.000 0.000 
		}
	}
}
type={
	type="nammi_cologne_cathedral_entity"
	use_animation=no
	scale=0.730000
	time_duration=300.000000
	object={
		name="cologne"
		hidden_on_start=no
		position={
			3166.000 0.350 2004.000 
		}
		rotation={
			0.000 -90.000 0.000 
		}
	}
	object={
		name="cologne"
		hidden_on_start=no
		position={
			2908.300 0.350 1537.500 
		}
		rotation={
			0.000 -90.000 0.000 
		}
	}
}
type={
	type="panama_canal"
	use_animation=no
	scale=1.500000
	time_duration=300.000000
	always_visible=yes
	visible_in_all_map_modes=yes
	object={
		name="panama_canal"
		hidden_on_start=yes
		position={
			1565.800 0.000 1016.500 
		}
		rotation={
			0.000 25.000 0.000 
		}
	}
}
type={
	type="nammi_mount_fuji_entity"
	use_animation=no
	scale=0.900000
	time_duration=300.000000
	object={
		name="mount_fuji"
		hidden_on_start=no
		position={
			3107.000 -1.100 1687.000 
		}
		rotation={
			0.000 -110.000 0.000 
		}
	}
}
type={
	type="nammi_notre_dame_cathedral_entity"
	use_animation=no
	scale=0.580000
	time_duration=300.000000
	object={
		name="notre_dame"
		hidden_on_start=no
		position={
			2807.000 0.200 1536.000 
		}
		rotation={
			0.000 20.000 0.000 
		}
	}
	object={
		name="notre_dame"
		hidden_on_start=no
		position={
			3128.000 0.200 1979.000 
		}
		rotation={
			0.000 20.000 0.000 
		}
	}
}
type={
	type="nammi_old_faithful_geyser_entity"
	use_animation=no
	scale=0.150000
	time_duration=300.000000
	object={
		name="old_faithful"
		hidden_on_start=no
		position={
			1082.500 0.010 1630.000 
		}
		rotation={
			0.000 -60.000 0.000 
		}
	}
}
type={
	type="nammi_stpeters_cathedral_entity"
	use_animation=no
	scale=0.500000
	time_duration=300.000000
	object={
		name="duty"
		hidden_on_start=yes
		position={
			3935.000 0.260 1726.000 
		}
		rotation={
			0.000 70.000 0.000 
		}
	}
	object={
		name="stpeters"
		hidden_on_start=yes
		position={
			2811.000 0.260 1536.000 
		}
		rotation={
			0.000 70.000 0.000 
		}
	}
	object={
		name="stpeters"
		hidden_on_start=yes
		position={
			3137.000 0.260 1985.000 
		}
		rotation={
			0.000 70.000 0.000 
		}
	}
}
type={
	type="nammi_tower_of_london_entity"
	use_animation=no
	scale=0.300000
	time_duration=300.000000
	object={
		name="tower_of_london"
		hidden_on_start=no
		position={
			2927.000 0.200 1511.000 
		}
		rotation={
			0.000 13.000 0.000 
		}
	}
	object={
		name="tower_of_london"
		hidden_on_start=no
		position={
			2744.000 0.200 1613.000 
		}
		rotation={
			0.000 13.000 0.000 
		}
	}
	object={
		name="tower_of_london"
		hidden_on_start=no
		position={
			3072.000 0.200 1546.000 
		}
		rotation={
			0.000 13.000 0.000 
		}
	}
	object={
		name="tower_of_london"
		hidden_on_start=no
		position={
			2985.000 0.200 1711.000 
		}
		rotation={
			0.000 13.000 0.000 
		}
	}
	object={
		name="tower_of_london"
		hidden_on_start=no
		position={
			3079.000 0.200 1792.000 
		}
		rotation={
			0.000 13.000 0.000 
		}
	}
	object={
		name="tower_of_london"
		hidden_on_start=no
		position={
			2841.000 0.200 1667.000 
		}
		rotation={
			0.000 13.000 0.000 
		}
	}
	object={
		name="tower_of_london"
		hidden_on_start=no
		position={
			2900.000 0.200 1607.000 
		}
		rotation={
			0.000 13.000 0.000 
		}
	}
}
type={
	type="nammi2_chichen_itza_entity"
	use_animation=no
	scale=0.500000
	time_duration=300.000000
	object={
		name="chichen_itza"
		hidden_on_start=no
		position={
			1537.000 -0.050 1067.000 
		}
		rotation={
			0.000 -103.000 0.000 
		}
	}
	object={
		name="chichen_itza"
		hidden_on_start=no
		position={
			4146.000 -0.900 1441.000 
		}
		rotation={
			0.000 0.000 0.000 
		}
	}
	object={
		name="chichen_itza"
		hidden_on_start=no
		position={
			4144.000 -1.200 1441.000 
		}
		rotation={
			0.000 0.000 0.000 
		}
	}
	object={
		name="chichen_itza"
		hidden_on_start=no
		position={
			4148.000 -1.200 1441.000 
		}
		rotation={
			0.000 0.000 0.000 
		}
	}
	object={
		name="chichen_itza"
		hidden_on_start=no
		position={
			1411.000 -0.050 1618.000 
		}
		rotation={
			0.000 -103.000 0.000 
		}
	}
	object={
		name="chichen_itza"
		hidden_on_start=no
		position={
			3159.000 -0.050 1999.000 
		}
		rotation={
			0.000 -103.000 0.000 
		}
	}
}
type={
	type="nammi2_hagia_sophia_entity"
	use_animation=no
	scale=0.260000
	time_duration=300.000000
	object={
		name="hagia_sophia"
		hidden_on_start=no
		position={
			3206.000 0.150 1385.000 
		}
		rotation={
			0.000 -30.000 0.000 
		}
	}
}
type={
	type="nammi2_hagia_sophia_minarets_entity"
	use_animation=no
	scale=0.260000
	time_duration=300.000000
	object={
		name="hagia_sophia_minarets"
		hidden_on_start=yes
		position={
			3241.000 0.150 1344.000 
		}
		rotation={
			0.000 -30.000 0.000 
		}
	}
}
type={
	type="nammi2_machu_picchu_entity"
	use_animation=no
	scale=0.180000
	time_duration=300.000000
	object={
		name="machu_picchu"
		hidden_on_start=no
		position={
			1661.000 -0.200 649.000 
		}
		rotation={
			0.000 85.000 0.000 
		}
	}
	object={
		name="machu_picchu"
		hidden_on_start=no
		position={
			3081.000 -0.200 1688.000 
		}
		rotation={
			0.000 85.000 0.000 
		}
	}
}
type={
	type="nammi2_parthenon_entity"
	use_animation=no
	scale=0.290000
	time_duration=300.000000
	object={
		name="parthenon"
		hidden_on_start=no
		position={
			3080.000 0.000 1374.000 
		}
		rotation={
			0.000 55.000 0.000 
		}
	}
}
type={
	type="nammi2_petra_entity"
	use_animation=no
	scale=0.150000
	time_duration=300.000000
	object={
		name="petra"
		hidden_on_start=no
		position={
			3378.000 0.000 1236.000 
		}
		rotation={
			0.000 -30.000 0.000 
		}
	}
}
type={
	type="nammi2_tenochtitlan_entity"
	use_animation=no
	scale=0.120000
	time_duration=300.000000
	object={
		name="tenochtitlan"
		hidden_on_start=no
		position={
			3320.000 0.300 1715.000 
		}
		rotation={
			0.000 0.000 0.000 
		}
	}
	object={
		name="tenochtitlan"
		hidden_on_start=no
		position={
			3321.000 -0.500 1714.000 
		}
		rotation={
			0.000 0.000 0.000 
		}
	}
	object={
		name="tenochtitlan"
		hidden_on_start=no
		position={
			3319.000 -0.500 1714.000 
		}
		rotation={
			0.000 0.000 0.000 
		}
	}
	object={
		name="tenochtitlan"
		hidden_on_start=no
		position={
			3322.000 -0.900 1711.000 
		}
		rotation={
			0.000 180.000 0.000 
		}
	}
	object={
		name="tenochtitlan"
		hidden_on_start=no
		position={
			3318.000 -0.900 1711.000 
		}
		rotation={
			0.000 180.000 0.000 
		}
	}
	object={
		name="tenochtitlan"
		hidden_on_start=no
		position={
			3317.000 -0.900 1713.000 
		}
		rotation={
			0.000 180.000 0.000 
		}
	}
	object={
		name="tenochtitlan"
		hidden_on_start=no
		position={
			3323.000 -0.900 1713.000 
		}
		rotation={
			0.000 180.000 0.000 
		}
	}
	object={
		name="tenochtitlan"
		hidden_on_start=no
		position={
			3120.000 0.300 1979.000 
		}
		rotation={
			0.000 0.000 0.000 
		}
	}
}
type={
	type="nammi2_buddha_statues_big_entity"
	use_animation=no
	scale=0.190000
	time_duration=300.000000
	object={
		name="buddha_big"
		hidden_on_start=no
		position={
			4060.000 -1.000 1317.000 
		}
		rotation={
			50.000 0.000 0.000 
		}
	}
	object={
		name="buddha_big"
		hidden_on_start=no
		position={
			3612.000 -1.000 1297.000 
		}
		rotation={
			50.000 0.000 0.000 
		}
	}
	object={
		name="buddha_big"
		hidden_on_start=no
		position={
			3720.000 -1.000 1340.000 
		}
		rotation={
			50.000 90.000 0.000 
		}
	}
	object={
		name="buddha_big"
		hidden_on_start=no
		position={
			3182.000 -1.000 1410.000 
		}
		rotation={
			50.000 -10.000 0.000 
		}
	}
	object={
		name="buddha_big"
		hidden_on_start=no
		position={
			3137.000 -1.000 1442.000 
		}
		rotation={
			50.000 -140.000 0.000 
		}
	}
	object={
		name="buddha_big"
		hidden_on_start=no
		position={
			3366.000 -1.000 1479.000 
		}
		rotation={
			50.000 0.000 0.000 
		}
	}
	object={
		name="buddha_big"
		hidden_on_start=no
		position={
			3924.000 -1.000 1279.000 
		}
		rotation={
			0.000 25.000 0.000 
		}
	}
	object={
		name="buddha_big"
		hidden_on_start=no
		position={
			4232.000 -1.000 1390.000 
		}
		rotation={
			50.000 25.000 0.000 
		}
	}
	object={
		name="buddha_big"
		hidden_on_start=no
		position={
			3258.000 -1.000 1617.000 
		}
		rotation={
			50.000 -90.000 0.000 
		}
	}
	object={
		name="buddha_big"
		hidden_on_start=no
		position={
			3133.000 -1.000 1715.000 
		}
		rotation={
			50.000 -50.000 0.000 
		}
	}
	object={
		name="buddha_big"
		hidden_on_start=no
		position={
			3358.000 -1.000 1729.000 
		}
		rotation={
			50.000 -90.000 0.000 
		}
	}
	object={
		name="buddha_big"
		hidden_on_start=no
		position={
			3418.000 -1.000 1791.000 
		}
		rotation={
			50.000 -180.000 0.000 
		}
	}
	object={
		name="buddha_big"
		hidden_on_start=no
		position={
			3174.000 -1.000 2009.000 
		}
		rotation={
			0.000 25.000 0.000 
		}
	}
}
type={
	type="nammi2_buddha_statues_small_entity"
	use_animation=no
	scale=0.120000
	time_duration=300.000000
	object={
		name="buddha_small"
		hidden_on_start=no
		position={
			3180.000 -0.200 2008.000 
		}
		rotation={
			0.000 -15.000 0.000 
		}
	}
}
type={
	type="nammi2_stonehenge_entity"
	use_animation=no
	scale=0.180000
	time_duration=300.000000
	object={
		name="stonehenge"
		hidden_on_start=no
		position={
			2857.000 0.150 1514.000 
		}
		rotation={
			0.000 -0.800 0.000 
		}
	}
}
type={
	type="nammi2_moai_entity"
	use_animation=no
	scale=0.300000
	time_duration=300.000000
	object={
		name="moai"
		hidden_on_start=no
		position={
			1053.000 0.150 314.000 
		}
		rotation={
			0.000 -12.000 0.000 
		}
	}
}
type={
	type="nammi2_forbidden_city_entity"
	use_animation=no
	scale=0.150000
	time_duration=300.000000
	object={
		name="forbidden_city"
		hidden_on_start=no
		position={
			4550.000 -0.020 1296.000 
		}
		rotation={
			0.000 -30.000 0.000 
		}
	}
	object={
		name="forbidden_city"
		hidden_on_start=no
		position={
			2913.000 -0.020 1597.000 
		}
		rotation={
			0.000 30.000 0.000 
		}
	}
	object={
		name="forbidden_city"
		hidden_on_start=no
		position={
			3162.000 -0.020 1989.000 
		}
		rotation={
			0.000 -30.000 0.000 
		}
	}
}
type={
	type="nammi2_himeji_castle_entity"
	use_animation=no
	scale=0.290000
	time_duration=300.000000
	object={
		name="himeji_castle"
		hidden_on_start=no
		position={
			4717.000 -0.300 761.000 
		}
		rotation={
			0.000 -25.000 0.000 
		}
	}
	object={
		name="himeji_castle"
		hidden_on_start=no
		position={
			3130.000 -0.300 1996.000 
		}
		rotation={
			0.000 -25.000 0.000 
		}
	}
}
type={
	type="kiel_canal"
	use_animation=no
	scale=1.200000
	time_duration=300.000000
	always_visible=yes
	visible_in_all_map_modes=yes
	object={
		name="kiel_canal"
		hidden_on_start=yes
		position={
			2952.800 -0.100 1609.000 
		}
		rotation={
			0.000 -75.000 0.000 
		}
	}
}
type={
	type="suez_canal"
	use_animation=no
	scale=0.200000
	time_duration=600.000000
	always_visible=yes
	visible_in_all_map_modes=yes
	object={
		name="city_canal"
		hidden_on_start=no
		position={
			3861.000 0.300 1606.000 
		}
		rotation={
			1.000 2.500 0.500 
		}
	}
}
type={
	type="panama_canal"
	use_animation=no
	scale=1.500000
	time_duration=300.000000
	always_visible=yes
	visible_in_all_map_modes=yes
	object={
		name="panama_canal"
		hidden_on_start=yes
		position={
			1565.800 0.000 1016.500 
		}
		rotation={
			0.000 25.000 0.000 
		}
	}
}
