# 168 Normandie - Principal cities: Caen

owner = A85
controller = A85
add_core = A85
culture = west_damerian
religion = regent_court

hre = yes

base_tax = 7
base_production = 7
base_manpower = 5

trade_goods = cloth

capital = ""

is_city = yes
fort_15th = yes 







