#220 - Valencia |

owner = A13
controller = A13
add_core = A13
add_core = A51
culture = gawedi
religion = regent_court

hre = no

base_tax = 5
base_production = 4
base_manpower = 3

trade_goods = wine

capital = ""

is_city = yes












