#349 - Figuig

owner = A46
controller = A46
add_core = A46
culture = arbarani
religion = regent_court

hre = yes

base_tax = 5
base_production = 5
base_manpower = 6

trade_goods = cloth

capital = ""

is_city = yes








add_permanent_province_modifier = {
	name = half_elven_minority_coexisting_small
	duration = -1
}

