#406 - As Sahiliyah

owner = F07
controller = F07
add_core = F07
add_core = F08
culture = west_sandfang_gnoll
religion = xhazobkult

hre = no

base_tax = 3
base_production = 5
base_manpower = 3

trade_goods = slaves

capital = ""

is_city = yes

add_permanent_province_modifier = {
	name = human_minority_oppressed_small
	duration = -1
}






