#49 - Neumark | Old Pearlywine

owner = A11
controller = A11
add_core = A11
culture = pearlsedger
religion = regent_court

hre = yes

base_tax = 4
base_production = 8
base_manpower = 3

trade_goods = wine

capital = "of Pearl Vintage fame"

is_city = yes






