unguldavor_religious_missions = {
    slot = 1
    generic = no
    ai = yes
    potential = {
        tag = Z52
    }
    has_country_shield = yes
    
	Z52_orcish_zeal = {
        icon = mission_hands_praying
		required_missions = {  }
    
        trigger = {
			num_of_owned_provinces_with = {
				value = 20
				has_tax_building_trigger = yes
			}
		}
        effect = {
			add_country_modifier = {
				name = "unguldavor_orcish_zeal"
				duration = 9125
			}
			add_devotion = 50
        }
    }
	Z52_united_by_the_faith = {
		icon = mission_alliances
		required_missions = { Z52_orcish_zeal }
		trigger = {
			custom_trigger_tooltip = {
				tooltip = unguldavor_united_by_faith_tooltip
				num_of_allies = 2
				calc_true_if = {
					all_ally = {
						religion = ROOT
					}
					amount = 2
				}
			}
		}
		effect = {
			add_country_modifier = {
				name = "influential_diplomacy"
				duration = 9125 #25 years
			}
		}
	}
}

unguldavor_north_citadel = {
    slot = 1
    generic = no
    ai = yes
    potential = {
        tag = Z52
    }
    has_country_shield = yes
    
    Z52_rebuild_north_citadel = {
        icon = mission_colonial
		required_missions = { Z52_secure_castonath }
		position = 3
		provinces_to_highlight = {
			province_id = 840
			OR = {
				NOT = { owned_by = ROOT }
				NOT = { fort_level = 2 }
			}
		}
        trigger = {
			840 = {
				owned_by = ROOT
				fort_level = 2
			}
		}
        effect = {
			840 = {
				add_province_modifier = {
					name = "local_fortress"
					duration = -1
				}
			}
        }
    }
}

unguldavor_tech_missions = {
    slot = 1
    generic = no
    ai = yes
    potential = {
        tag = Z52
    }
    has_country_shield = yes
    
    Z52_orcish_renaissance = {
        icon = mission_hands_praying
		required_missions = { Z52_civil_district }
		position = 5
    
        trigger = {
			num_of_owned_provinces_with = {
				value = 5
				has_building = university
			}
			has_institution = renaissance
		}
        effect = {
			add_country_modifier = {
				name = "unguldavor_orcish_renaissance"
				duration = 9125
			}
        }
    }
}

unguldavor_khozrugan = {
	slot = 1
	generic = no
	ai = yes
	potential = {
		tag = Z52
		NOT = { map_setup = map_setup_random }
	}
	has_country_shield = yes

	Z52_integrate_khozrugan = {
		icon = mission_found_udaipur
		position = 9
		required_missions = { Z52_dreams_of_unity }
		provinces_to_highlight = {
			region = west_castanor_region
			NOT = { owned_by = ROOT }
		}
		trigger = {
			west_castanor_region = {
				type = all
				country_or_non_sovereign_subject_holds = ROOT
			}
		}
		effect = {
			add_country_modifier = {
				name = "unguldavor_khozrugani_warriors"
				duration = 9125 #25 years
			}
		}
	}
}

unguldavor_castonath_and_escann = {
	slot = 2
	generic = no
	ai = yes
	potential = {
		tag = Z52
		NOT = { map_setup = map_setup_random }
	}
	has_country_shield = yes

	Z52_secure_castonath = {
		icon = mission_conquer_punjab
		required_missions = { Z52_establish_our_state }
		position = 2
		provinces_to_highlight = {
			area = castonath_area
			NOT = { owned_by = ROOT }
		}
		trigger = {
			castonath_area = {
				type = all
				owned_by = ROOT
			}
		}
		effect = {
			add_prestige = 10
		}
	}
	Z52_prepare_for_reconstruction = {
		icon = mission_early_game_buildings
		required_missions = { Z52_secure_castonath }
		
		provinces_to_highlight = {
			area = castonath_area
			NOT = { owned_by = ROOT }
		}
		
		trigger = {
			castonath_area = {
				type = all
				owned_by = ROOT
			}
			treasury = 500
			adm_power = 200
		}
		
		effect = {
			add_treasury = -500
			add_adm_power = -200
			castonath_area = {
				add_province_modifier = {
					name = unguldavor_reconstruction_of_castonath
					duration = 18250
				}
			}
		}
	}
	Z52_civil_district = {
		icon = mission_empire
		required_missions = { Z52_prepare_for_reconstruction }
		provinces_to_highlight = {
			province_id = 833
			OR = {
				NOT = { owned_by = ROOT }
				NOT = { base_production = 10 }
				NOT = {
					has_courthouse_building_trigger = yes
				}
			}
		}
		trigger = {
			owns_core_province = 833
			833 = {
				base_production = 10
				has_courthouse_building_trigger = yes
			}
		}
		effect = {
			833 = {
				change_trade_goods = paper
				add_base_tax = 3
				add_base_production = 2
				add_base_manpower = 3
			}
		}
	}
	Z52_war_district = {
		icon = mission_assemble_an_army
		required_missions = { Z52_civil_district }
		provinces_to_highlight = {
			province_id = 831
			OR = {
				NOT = { owned_by = ROOT }
				NOT = { base_manpower = 10 }
				NOT = {
					has_manpower_building_trigger = yes
				}
				NOT = {
					has_forcelimit_building_trigger = yes
				}
			}
		}
		trigger = {
			owns_core_province = 831
			831 = {
				base_manpower = 10
				has_manpower_building_trigger = yes
				has_forcelimit_building_trigger = yes
			}
		}
		effect = {
			831 = {
				change_trade_goods = cloth
				add_base_tax = 1
				add_base_production = 1
				add_base_manpower = 5
			}
		}
	}
	Z52_trade_district = {
		icon = mission_war_chest
		required_missions = { Z52_war_district }
		provinces_to_highlight = {
			province_id = 832
			OR = {
				NOT = { owned_by = ROOT }
				NOT = { base_production = 10 }
				NOT = {
					has_trade_building_trigger = yes
				}
			}
		}
		trigger = {
			owns_core_province = 832
			832 = {
				base_production = 10
				has_trade_building_trigger = yes
			}
		}
		effect = {
			832 = {
				change_trade_goods = glass
				add_base_tax = 3
				add_base_production = 3
			}
		}
	}
	Z52_the_biggest_city_in_the_world = {
		icon = mission_empire
		required_missions = { Z52_trade_district }
		
		provinces_to_highlight = {
			area = castonath_area
			NOT = { owned_by = ROOT }
		}
		
		trigger = {
			castonath_area = {
				type = all
				owned_by = ROOT
			}
			833 = {
				development = 50
				has_building = university
			}
			832 = {
				development = 40
				has_building = university
			}
			831 = {
				development = 40
				has_building = university
			}
		}
		effect = {
			833 = {
				add_province_modifier = {
					name = unguldavor_civil_district
					duration = -1
				}
			}
			832 = {
				add_province_modifier = {
					name = unguldavor_war_district
					duration = -1
				}
			}
			831 = {
				add_province_modifier = {
					name = unguldavor_trade_district
					duration = -1
				}
			}
		}
	}
	Z52_dreams_of_unity = {
		icon = mission_unite_home_region
		required_missions = { Z52_the_biggest_city_in_the_world }
		trigger = {
			NOT = {
				OR = {
					exists = Z51
					exists = Z53
				}
			}
		}
		effect = {
			west_castanor_region = {
				limit = {
					NOT = { is_core = ROOT }
					NOT = { is_permanent_claim = ROOT }
				}
				add_permanent_claim = ROOT
			}
			inner_castanor_region = {
				limit = {
					NOT = { is_core = ROOT }
					NOT = { is_permanent_claim = ROOT }
				}
				add_permanent_claim = ROOT
			}
			south_castanor_region = {
				limit = {
					NOT = { is_core = ROOT }
					NOT = { is_permanent_claim = ROOT }
				}
				add_permanent_claim = ROOT
			}
		}
	}
	Z52_integrate_barumand = {
		icon = mission_found_udaipur
		required_missions = { Z52_dreams_of_unity }
		provinces_to_highlight = {
			region = west_castanor_region
			NOT = { owned_by = ROOT }
		}
		trigger = {
			south_castanor_region = {
				type = all
				country_or_non_sovereign_subject_holds = ROOT
			}
		}
		effect = {
			add_country_modifier = {
				name = "unguldavor_barumandi_farmlands"
				duration = 9125 #25 years
			}
		}
	}
	Z52_integrate_gray_orcs = {
		icon = mission_conquer_50_development
		required_missions = { Z52_integrate_barumand Z52_integrate_khozrugan }
		provinces_to_highlight = {
			OR = {
				area = vrorenmarch_area
				area = vrorenwall_area
				area = southern_giants_tears_area
				area = northern_giants_tears_area
				area = gulletpeak_area
				area = cedesck_area
				area = sondaar_area
				area = wudhal_area
				area = east_chillsbay_area
			}
			NOT = { owned_by = ROOT }
		}
		trigger = {
			vrorenmarch_area = {
				type = all
				country_or_non_sovereign_subject_holds = ROOT
			}
			vrorenwall_area = {
				type = all
				country_or_non_sovereign_subject_holds = ROOT
			}
			southern_giants_tears_area = {
				type = all
				country_or_non_sovereign_subject_holds = ROOT
			}
			northern_giants_tears_area = {
				type = all
				country_or_non_sovereign_subject_holds = ROOT
			}
			gulletpeak_area = {
				type = all
				country_or_non_sovereign_subject_holds = ROOT
			}
			cedesck_area = {
				type = all
				country_or_non_sovereign_subject_holds = ROOT
			}
			sondaar_area = {
				type = all
				country_or_non_sovereign_subject_holds = ROOT
			}
			wudhal_area = {
				type = all
				country_or_non_sovereign_subject_holds = ROOT
			}
			east_chillsbay_area = {
				type = all
				country_or_non_sovereign_subject_holds = ROOT
			}
		}
		effect = {
			add_country_modifier = {
				name = "unguldavor_gray_orc_shipbuilding"
				duration = 9125 #25 years
			}
		}
	}
}

unguldavor_general = {
	slot = 3
	generic = no
	ai = yes
	potential = {
		tag = Z52
		NOT = { map_setup = map_setup_random }
	}
	has_country_shield = yes

	Z52_establish_our_state = {
		icon = mission_empire
		required_missions = {  }
		trigger = {
			total_development = 100
			stability = 2
			NOT = {
				exists = B25
			}
		}
		effect = {
			add_country_modifier = {
				name = "unguldavor_new_country"
				duration = 9125 #25 years
			}
		}
	}
	Z52_fortify_our_mainland = {
		icon = mission_colonial
		required_missions = { Z52_establish_our_state }
		trigger = {
			num_of_owned_provinces_with = {
				value = 4
				has_fort_building_trigger = yes
			}
		}
		effect = {
			add_country_modifier = {
				name = "unguldavor_land_of_castles"
				duration = 9125 #25 years
			}
		}
	}
	Z52_orcish_artillery = {
		icon = mission_colonial
		required_missions = { Z52_fortify_our_mainland }
		position = 4
		trigger = {
			num_of_owned_provinces_with = {
				value = 5
				has_building = weapons
			}
		}
		effect = {
			add_country_modifier = {
				name = "unguldavor_advanced_artillery"
				duration = 9125 #25 years
			}
		}
	}
}

unguldavor_economic_tree = {
	slot = 4
	generic = no
	ai = yes
	potential = {
		tag = Z52
		NOT = { map_setup = map_setup_random }
	}
	has_country_shield = yes
	
	Z52_settle_down = {
		icon = mission_colonial
		required_missions = { Z52_establish_our_state }
		position = 2
		
		trigger = {
			grown_by_development = 150
		}
		effect = {
			add_country_modifier = {
				name = "unguldavor_building_new_cities"
				duration = 9125 #25 years
			}
		}
	}
	Z52_food_supply = {
		icon = mission_high_income
		required_missions = { Z52_fortify_our_mainland }
		position = 4
		trigger = {
			num_of_owned_provinces_with = {
				value = 5
				OR = {
					trade_goods = grain
					trade_goods = livestock
				}
			}
		}
		effect = {
			add_country_modifier = {
				name = "unguldavor_growing_population"
				duration = 9125 #25 years
			}
		}
	}
	Z52_develop_farming_estates = {
		icon = mission_colonial
		required_missions = { Z52_fortify_our_mainland }
		position = 4
		trigger = {
			num_of_owned_provinces_with = {
				value = 5
				has_building = farm_estate
			}
		}
		effect = {
			add_country_modifier = {
				name = "unguldavor_advanced_farming"
				duration = 9125 #25 years
			}
		}
	}
	Z52_orcish_industrialization = {
		icon = mission_rb_build_furnaces
		required_missions = { Z52_fortify_our_mainland }
		position = 4
		trigger = {
			calc_true_if = {
				all_owned_province = {
					OR = {
						has_building = mills
						has_building = farm_estate
						has_building = tradecompany
						has_building = plantations
						has_building = textile
						has_building = weapons
						has_building = wharf
						has_building = furnace
					}
				}
				amount = 25
			}
		}
		effect = {
			add_country_modifier = {
				name = "unguldavor_orcish_industrialization"
				duration = -1
			}
			add_years_of_income = 2.0
		}
	}
}

unguldavor_steel_hill = {
	slot = 5
	generic = no
	ai = yes
	potential = {
		tag = Z52
		NOT = { map_setup = map_setup_random }
	}
	has_country_shield = yes
	
	Z52_steel_hill = {
		icon = mission_have_manufactories
		required_missions = { Z52_settle_down }
		position = 3
		
		trigger = {
			860 = {
				development = 30
				base_production = 15
				has_building = weapons
				fort_level = 2
			}
		}
		effect = {
			860 = {
				add_permanent_province_modifier = {
					name = "unguldavor_steel_hill"
					duration = -1
				}
				change_province_name = Stalkhorm
				rename_capital = Stalkhorm
			}
		}
	}
}