# namespace = colonial_aelantir

# country_event = {
	# id = colonial_aelantir.1
	# title = colonial_aelantir.1.t
	# picture = CARIBBEAN_PIRATE_FORT_eventPicture
	# desc = colonial_aelantir.1.d
	
	# fire_only_once = yes
	
	# trigger = {
		# NOT = { exists = H30 }
		# #has_global_flag = castellos_is_dead	#essentially Aelantir is discovered
		
		# any_province = {
			# area = gommiochand_area
			# is_empty = yes
			
			# has_empty_adjacent_province = yes
		# }
	
		
	# }
	
	# immediate = {		
		# #Spawn in...
		
		# # #Any empty province
		# random_province = {
			# area = gommiochand_area
			# is_empty = yes
			
			# has_empty_adjacent_province = yes
			
			# save_event_target_as = adventurer_spawn_province
		# }
		
		# #Empty province
		
		# random_province = {
			# area = gommiochand_area
			# is_empty = yes
			
			# has_empty_adjacent_province = yes
			
			# has_port = yes
			# save_event_target_as = adventurer_spawn_province
		# }
		
		# random_province = {
			# area = gommiochand_area
			# is_empty = yes
			
			# has_empty_adjacent_province = yes
			
			# province_id = 2088
			
			# save_event_target_as = adventurer_spawn_province
		# }
		

		
		# event_target:adventurer_spawn_province = {
			# create_colony = 1000
		# }
	# }
	
	# mean_time_to_happen = {
		# months = 12
	# }
	
	# option = { # play as the pirates
		# name = colonial_aelantir.1.a
		# # play as H30
		# # trigger = {
			# # ai = no
		# # }
		# event_target:adventurer_spawn_province = {
			# cede_province = H30
		# }

		# switch_tag = H30
	# }
	# option = { # pirates get released
		# name = colonial_aelantir.1.b
		# # adventurer_spawn_province = {
			# # cede_province = H30
		# # }
		# event_target:adventurer_spawn_province = {
			# create_colony = 1000
		# }
		
		# event_target:adventurer_spawn_province = {
			# cede_province = H30
		# }

	# }
# }

# province_event = {
	# id = colonial_aelantir.2
	# title = colonial_aelantir.2.t
	# picture = CARIBBEAN_PIRATE_FORT_eventPicture
	# desc = colonial_aelantir.2.d
	
	# fire_only_once = yes
	
	# trigger = {
		# NOT = { exists = H30 }
		# #has_global_flag = castellos_is_dead	#essentially Aelantir is discovered
		
		# #You're the country or you own the relevant province

		
		# is_empty = yes
		# has_empty_adjacent_province = yes
		
		# area = gommiochand_area
		
		# #current_age = age_of_reformation
	
		
	# }
	
	# immediate = {		
		# Spawn in...
		
		# #Any empty province
		# random_province = {
			# area = gommiochand_area
			# is_empty = yes
			
			# has_empty_adjacent_province = yes
			
			# is_empty = yes	#seems to be a province event only
			# save_event_target_as = adventurer_spawn_province
		# }
		
		# #Empty province
		
		# random_province = {
			# area = gommiochand_area
			# is_empty = yes
			
			# has_empty_adjacent_province = yes
			
			# has_port = yes
			# save_event_target_as = adventurer_spawn_province
		# }
		
		# random_province = {
			# area = gommiochand_area
			# is_empty = yes
			
			# has_empty_adjacent_province = yes
			
			# province_id = 2088
			# save_event_target_as = adventurer_spawn_province
		# }

		
		# event_target:adventurer_spawn_province = {
			# create_colony = 1000
		# }
	# }
	
	# mean_time_to_happen = {
		# months = 12
	# }
	
	# option = { # play as the pirates
		# name = colonial_aelantir.2.a
		# play as H30
		# trigger = {
			# ai = no
		# }
		# event_target:adventurer_spawn_province = {
			# cede_province = H30
		# }

		# switch_tag = H30
	# }
	# option = { # pirates get released
		# name = colonial_aelantir.2.b
		# event_target:adventurer_spawn_province = {
			# create_colony = 1000
		# }
		# event_target:adventurer_spawn_province = {
			# cede_province = H30
		# }

	# }
# }