
namespace = corvuria

###########Events 1-X are triggered or originate from a Corvurian mission.

#Asheniande Slandered
country_event = {
	id = corvuria.1
	title = corvuria.1.t
	desc = corvuria.1.d
	picture = ANGRY_MOB_eventPicture
	
	is_triggered_only = yes
	
	option = {
		name = corvuria.1.a
		ai_chance = { factor = 100 }
		dostanor_region = {
			limit = {
				owned_by = ROOT
			}
			add_nationalism = 20
			add_local_autonomy = 30
		}
		effect = {
			add_country_modifier = {
				name = corvuria_asheniande_slandered
				duration = 7300
			}
		}
	}
}

#Reaping the Ashfields
country_event = {
	id = corvuria.2
	title = corvuria.2.t
	desc = corvuria.2.d
	picture = BORDER_TENSION_eventPicture
	
	is_triggered_only = yes
	
	option = {
		name = corvuria.2.a
		ai_chance = { factor = 100 }
		311 = {
			add_base_tax = -1
			add_base_production = -1
			add_base_manpower = -1
		}
		425 = { add_base_production = 1 }
		439 = { add_base_production = 1 }
		440 = { add_base_production = 1 }
	}
}

#removes Emperor from War on Asheniande
country_event = {
	id = corvuria.3
	title = corvuria.3.t
	desc = corvuria.3.d
	picture = CIVIL_WAR_eventPicture
	
	is_triggered_only = yes
	hidden = yes
	
	immediate = {
		white_peace = A59
		hidden_effect = {
			every_ally = {
				limit = {
					NOT = { alliance_with = A60 }
					NOT = { tag = A60 }
				}
				white_peace = A59
			}
		}
	}
	
	option = {
		name = corvuria.3.a
		ai_chance = { factor = 100 }
		add_prestige = 5
	}
}

#Invitation to the Court of Blood
country_event = {
	id = corvuria.4
	title = corvuria.4.t
	desc = corvuria.4.d
	picture = DIPLOMACY_eventPicture
	
	is_triggered_only = yes
	
	option = {
		name = corvuria.4.a
		ai_chance = { 
			factor = 100 
			modifier = {
				factor = 4
				alliance_with = FROM
			}
			modifier = {
				factor = 0.25
				is_rival = FROM
			}
			modifier = {
				factor = 0.10
				war_with = FROM
			}
			modifier = {
				factor = 0.75
				NOT = { has_opinion = { who = FROM value = 0 } }
			}
			modifier = {
				factor = 0.75
				NOT = { has_opinion = { who = FROM value = -50 } }
			}
			modifier = {
				factor = 0.50
				NOT = { has_opinion = { who = FROM value = -100 } }
			}
			modifier = {
				factor = 1.25
				has_opinion = { who = FROM value = 0 } 
			}
			modifier = {
				factor = 1.5
				has_opinion = { who = FROM value = 50 } 
			}
			modifier = {
				factor = 1.5
				has_opinion = { who = FROM value = 100 } 
			}
			modifier = {
				factor = 1.5
				has_opinion = { who = FROM value = 150 } 
			}
			modifier = {
				factor = 0.5
				has_estate_privilege = estate_vampires_organization_vampiric_emigres
			}
			modifier = {
				factor = 2
				has_estate_privilege = estate_vampires_organization_bloody_aristocracy
			}
			modifier = {
				factor = 0.8
				has_estate_privilege = estate_vampires_organization_vampires_lord
			}
			modifier = {
				factor = 2
				has_estate_privilege = estate_vampires_law_traditional_masquerade
			}
			modifier = {
				factor = 5
				has_estate_privilege = estate_vampires_law_state_collusion_masquerade
			}
			modifier = {
				factor = 0.25
				has_estate_privilege = estate_vampires_law_open_rule
			}
		}
		hidden_effect = {
			if = {
				limit = {
					has_estate_privilege = estate_vampires_organization_vampiric_emigres
				}
				remove_estate_privilege = estate_vampires_organization_vampiric_emigres
			}
			if = {
				limit = {
					has_estate_privilege = estate_vampires_organization_bloody_aristocracy
				}
				remove_estate_privilege = estate_vampires_organization_bloody_aristocracy
			}
			if = {
				limit = {
					has_estate_privilege = estate_vampires_organization_vampires_lord
				}
				remove_estate_privilege = estate_vampires_organization_vampires_lord
			}
		}
		if = {
			limit = {
				has_estate_privilege = estate_vampires_law_open_rule
			}
			remove_estate_privilege = estate_vampires_law_open_rule
			set_estate_privilege = estate_vampires_law_traditional_masquerade
		}
		set_estate_privilege = estate_vampires_organization_the_blood_court
	}
	
	option = {
		name = corvuria.4.b
		ai_chance = { factor = 100 }
		add_prestige = 5
	}
}